<svg xmlns="http://www.w3.org/2000/svg" width="90" height="72" viewBox="0 0 90 72">
  <path id="Icon_metro-quote" data-name="Icon metro-quote" d="M5.57,42.427v36h36v-36h-18s0-18,18-18v-18S5.57,6.427,5.57,42.427Zm90-18v-18s-36,0-36,36v36h36v-36h-18S77.57,24.427,95.57,24.427Z" transform="translate(95.57 78.427) rotate(180)" fill="#d8dced"/>
</svg>
