<?xml version="1.0" encoding="utf-8"?>
<!-- Generator: Adobe Illustrator 23.0.2, SVG Export Plug-In . SVG Version: 6.00 Build 0)  -->
<svg version="1.1" id="Layer_1" focusable="false" xmlns="http://www.w3.org/2000/svg" xmlns:xlink="http://www.w3.org/1999/xlink"
	 x="0px" y="0px" viewBox="0 0 640 512" style="enable-background:new 0 0 640 512;" xml:space="preserve">
<style type="text/css">
	.st0{fill:#00AEEF;}
</style>
<path class="st0" d="M560,0H80C53.5,0,32,21.5,32,48v320c0,26.5,21.5,48,48,48h192l-16,48h-72c-13.3,0-24,10.7-24,24s10.7,24,24,24
	h272c13.3,0,24-10.7,24-24s-10.7-24-24-24h-72l-16-48h192c26.5,0,48-21.5,48-48V48C608,21.5,586.5,0,560,0z M544,352H96V64h448V352z
	"/>
</svg>
